%YAML 1.1
%TAG !u! tag:unity3d.com,2011:
--- !u!1 &1584591811173274817
GameObject:
  m_ObjectHideFlags: 0
  m_CorrespondingSourceObject: {fileID: 0}
  m_PrefabInstance: {fileID: 0}
  m_PrefabAsset: {fileID: 0}
  serializedVersion: 6
  m_Component:
  - component: {fileID: 6966933462657383396}
  - component: {fileID: 2212329068570891610}
  - component: {fileID: 2192064528943409569}
  m_Layer: 31
  m_Name: Layer1
  m_TagString: Untagged
  m_Icon: {fileID: 0}
  m_NavMeshLayer: 0
  m_StaticEditorFlags: 0
  m_IsActive: 1
--- !u!4 &6966933462657383396
Transform:
  m_ObjectHideFlags: 0
  m_CorrespondingSourceObject: {fileID: 0}
  m_PrefabInstance: {fileID: 0}
  m_PrefabAsset: {fileID: 0}
  m_GameObject: {fileID: 1584591811173274817}
  m_LocalRotation: {x: -0, y: -0, z: -0, w: 1}
  m_LocalPosition: {x: 0, y: 0, z: 0}
  m_LocalScale: {x: 1, y: 1, z: 1}
  m_Children: []
  m_Father: {fileID: 3034013175296443561}
  m_RootOrder: 0
  m_LocalEulerAnglesHint: {x: 0, y: 0, z: 0}
--- !u!1839735485 &2212329068570891610
Tilemap:
  m_ObjectHideFlags: 0
  m_CorrespondingSourceObject: {fileID: 0}
  m_PrefabInstance: {fileID: 0}
  m_PrefabAsset: {fileID: 0}
  m_GameObject: {fileID: 1584591811173274817}
  m_Enabled: 1
  m_Tiles:
  - first: {x: -1, y: -3, z: 0}
    second:
      serializedVersion: 2
      m_TileIndex: 16
      m_TileSpriteIndex: 11
      m_TileMatrixIndex: 0
      m_TileColorIndex: 0
      m_TileObjectToInstantiateIndex: 65535
      m_AllTileFlags: 1073741826
  - first: {x: 2, y: -3, z: 0}
    second:
      serializedVersion: 2
      m_TileIndex: 17
      m_TileSpriteIndex: 14
      m_TileMatrixIndex: 0
      m_TileColorIndex: 0
      m_TileObjectToInstantiateIndex: 0
      m_AllTileFlags: 2
  - first: {x: 3, y: -3, z: 0}
    second:
      serializedVersion: 2
      m_TileIndex: 18
      m_TileSpriteIndex: 15
      m_TileMatrixIndex: 0
      m_TileColorIndex: 0
      m_TileObjectToInstantiateIndex: 1
      m_AllTileFlags: 1073741826
  - first: {x: -1, y: -2, z: 0}
    second:
      serializedVersion: 2
      m_TileIndex: 15
      m_TileSpriteIndex: 0
      m_TileMatrixIndex: 0
      m_TileColorIndex: 0
      m_TileObjectToInstantiateIndex: 65535
      m_AllTileFlags: 1073741826
  - first: {x: -2, y: -1, z: 0}
    second:
      serializedVersion: 2
      m_TileIndex: 14
      m_TileSpriteIndex: 13
      m_TileMatrixIndex: 0
      m_TileColorIndex: 0
      m_TileObjectToInstantiateIndex: 65535
      m_AllTileFlags: 1073741825
  - first: {x: -1, y: -1, z: 0}
    second:
      serializedVersion: 2
      m_TileIndex: 12
      m_TileSpriteIndex: 11
      m_TileMatrixIndex: 0
      m_TileColorIndex: 0
      m_TileObjectToInstantiateIndex: 65535
      m_AllTileFlags: 1073741825
  - first: {x: 0, y: -1, z: 0}
    second:
      serializedVersion: 2
      m_TileIndex: 13
      m_TileSpriteIndex: 12
      m_TileMatrixIndex: 0
      m_TileColorIndex: 0
      m_TileObjectToInstantiateIndex: 65535
      m_AllTileFlags: 1073741825
  - first: {x: -2, y: 0, z: 0}
    second:
      serializedVersion: 2
      m_TileIndex: 5
      m_TileSpriteIndex: 5
      m_TileMatrixIndex: 0
      m_TileColorIndex: 0
      m_TileObjectToInstantiateIndex: 65535
      m_AllTileFlags: 1073741825
  - first: {x: -1, y: 0, z: 0}
    second:
      serializedVersion: 2
      m_TileIndex: 0
      m_TileSpriteIndex: 0
      m_TileMatrixIndex: 0
      m_TileColorIndex: 0
      m_TileObjectToInstantiateIndex: 65535
      m_AllTileFlags: 1073741825
  - first: {x: 0, y: 0, z: 0}
    second:
      serializedVersion: 2
      m_TileIndex: 4
      m_TileSpriteIndex: 4
      m_TileMatrixIndex: 0
      m_TileColorIndex: 0
      m_TileObjectToInstantiateIndex: 65535
      m_AllTileFlags: 1073741825
  - first: {x: 2, y: 0, z: 0}
    second:
      serializedVersion: 2
      m_TileIndex: 6
      m_TileSpriteIndex: 6
      m_TileMatrixIndex: 0
      m_TileColorIndex: 0
      m_TileObjectToInstantiateIndex: 65535
      m_AllTileFlags: 1073741825
  - first: {x: 0, y: 2, z: 0}
    second:
      serializedVersion: 2
      m_TileIndex: 11
      m_TileSpriteIndex: 4294967295
      m_TileMatrixIndex: 0
      m_TileColorIndex: 0
      m_TileObjectToInstantiateIndex: 65535
      m_AllTileFlags: 1073741826
  - first: {x: 2, y: 2, z: 0}
    second:
      serializedVersion: 2
      m_TileIndex: 7
      m_TileSpriteIndex: 7
      m_TileMatrixIndex: 0
      m_TileColorIndex: 0
      m_TileObjectToInstantiateIndex: 65535
      m_AllTileFlags: 0
  - first: {x: 3, y: 2, z: 0}
    second:
      serializedVersion: 2
      m_TileIndex: 10
      m_TileSpriteIndex: 10
      m_TileMatrixIndex: 0
      m_TileColorIndex: 0
      m_TileObjectToInstantiateIndex: 65535
      m_AllTileFlags: 0
  - first: {x: -3, y: 3, z: 0}
    second:
      serializedVersion: 2
      m_TileIndex: 1
      m_TileSpriteIndex: 1
      m_TileMatrixIndex: 0
      m_TileColorIndex: 0
      m_TileObjectToInstantiateIndex: 65535
      m_AllTileFlags: 1073741825
  - first: {x: -2, y: 3, z: 0}
    second:
      serializedVersion: 2
      m_TileIndex: 2
      m_TileSpriteIndex: 2
      m_TileMatrixIndex: 0
      m_TileColorIndex: 0
      m_TileObjectToInstantiateIndex: 65535
      m_AllTileFlags: 1073741825
  - first: {x: 0, y: 3, z: 0}
    second:
      serializedVersion: 2
      m_TileIndex: 3
      m_TileSpriteIndex: 3
      m_TileMatrixIndex: 0
      m_TileColorIndex: 0
      m_TileObjectToInstantiateIndex: 65535
      m_AllTileFlags: 2
  - first: {x: 2, y: 3, z: 0}
    second:
      serializedVersion: 2
      m_TileIndex: 8
      m_TileSpriteIndex: 8
      m_TileMatrixIndex: 0
      m_TileColorIndex: 0
      m_TileObjectToInstantiateIndex: 65535
      m_AllTileFlags: 1073741824
  - first: {x: 3, y: 3, z: 0}
    second:
      serializedVersion: 2
      m_TileIndex: 9
      m_TileSpriteIndex: 9
      m_TileMatrixIndex: 0
      m_TileColorIndex: 0
      m_TileObjectToInstantiateIndex: 65535
      m_AllTileFlags: 1073741824
  m_AnimatedTiles:
  - first: {x: 2, y: 2, z: 0}
    second:
      m_AnimatedSprites:
      - {fileID: 21300000, guid: 3345c414c3619534a97f6e66a2719db8, type: 3}
      - {fileID: 21300000, guid: 5b2aee8ac65b099419a39563d427a029, type: 3}
      - {fileID: 21300000, guid: e453ab042fb824c4fa460ce5ea84d630, type: 3}
      m_AnimationSpeed: 1
      m_AnimationTimeOffset: 0
      m_IsLooping: 1
  - first: {x: 3, y: 2, z: 0}
    second:
      m_AnimatedSprites:
      - {fileID: 21300000, guid: 30851e57aff9f2747b320707417904a8, type: 3}
      - {fileID: 21300000, guid: f15e88932bceb1e4caa67181404a8d9b, type: 3}
      - {fileID: 21300000, guid: 6164cfebd7e4a2f4ea300553a07f389d, type: 3}
      m_AnimationSpeed: 1
      m_AnimationTimeOffset: 0
      m_IsLooping: 1
  - first: {x: 2, y: 3, z: 0}
    second:
      m_AnimatedSprites:
      - {fileID: 21300000, guid: e4fe7c12717dcb24e8bf87a2183ab3d6, type: 3}
      - {fileID: 21300000, guid: 3bed015478f92d94c9c4f3766bd86e1d, type: 3}
      - {fileID: 21300000, guid: ad7b788f7adcc634abcb6b6a98091b60, type: 3}
      m_AnimationSpeed: 1
      m_AnimationTimeOffset: 0
      m_IsLooping: 1
  - first: {x: 3, y: 3, z: 0}
    second:
      m_AnimatedSprites:
      - {fileID: 21300000, guid: 27b37cd346253cf4fa021e80632ecba2, type: 3}
      - {fileID: 21300000, guid: 5be319ff8b38eae41980cefe4e0c2f20, type: 3}
      - {fileID: 21300000, guid: 329b5927f2f56594586f0c2f2af6f08c, type: 3}
      m_AnimationSpeed: 1
      m_AnimationTimeOffset: 0
      m_IsLooping: 1
  m_TileAssetArray:
  - m_RefCount: 1
    m_Data: {fileID: 11400000, guid: 60f04b39f2c95a540bbfe8406a503553, type: 2}
  - m_RefCount: 1
    m_Data: {fileID: 11400000, guid: 405bcfca5d6c58b419d8270a5479ccc5, type: 2}
  - m_RefCount: 1
    m_Data: {fileID: 11400000, guid: f361adb6b96061c46a0f0ff4d059fa49, type: 2}
  - m_RefCount: 1
    m_Data: {fileID: 11400000, guid: 12ef52bf830fba045ba291d799b7bda6, type: 2}
  - m_RefCount: 1
    m_Data: {fileID: 11400000, guid: 483111385a28a4e45baad7b2ae4c6c25, type: 2}
  - m_RefCount: 1
    m_Data: {fileID: 11400000, guid: a4ef7e80d08c2244db9c90e90270f079, type: 2}
  - m_RefCount: 1
    m_Data: {fileID: 11400000, guid: 3e664b6afa85e7848a6af5fa4b77230c, type: 2}
  - m_RefCount: 1
    m_Data: {fileID: 11400000, guid: ee16be60f8b8cd34da1f6cbe21947ff9, type: 2}
  - m_RefCount: 1
    m_Data: {fileID: 11400000, guid: 2df09e4ed5efdc74cb89ba1898d94eec, type: 2}
  - m_RefCount: 1
    m_Data: {fileID: 11400000, guid: 456b3771684099543ba94caeff545d12, type: 2}
  - m_RefCount: 1
    m_Data: {fileID: 11400000, guid: adad6c81066ba9a46bda388be841ab55, type: 2}
  - m_RefCount: 1
    m_Data: {fileID: 11400000, guid: 86470cac4c3059b4ea43623f3bdc2313, type: 2}
  - m_RefCount: 1
    m_Data: {fileID: 11400000, guid: 6a6032ab0e19c41418b202eada9b5fab, type: 2}
  - m_RefCount: 1
    m_Data: {fileID: 11400000, guid: ff11491ce12fee841a88fed273552157, type: 2}
  - m_RefCount: 1
    m_Data: {fileID: 11400000, guid: 8fff89e117e5da64892efe03b967d8bc, type: 2}
  - m_RefCount: 1
    m_Data: {fileID: 11400000, guid: e09a8f1a6869c164fb745ce9fd0dc2e2, type: 2}
  - m_RefCount: 1
    m_Data: {fileID: 11400000, guid: d9373b8bb62d48d45ab11fe7a3e4c3e5, type: 2}
  - m_RefCount: 1
    m_Data: {fileID: 11400000, guid: 1afd6bcbaf53fdb49ad5c7cf2f787dc2, type: 2}
  - m_RefCount: 1
    m_Data: {fileID: 11400000, guid: afa7c4275ea822247ae2e4da58fdf44c, type: 2}
  m_TileSpriteArray:
  - m_RefCount: 2
    m_Data: {fileID: 21300000, guid: 4123cfc0fcf967343ad06e0acecab02e, type: 3}
  - m_RefCount: 1
    m_Data: {fileID: 21300000, guid: 2c124faf7cb76014c9eb8683c6f092ba, type: 3}
  - m_RefCount: 1
    m_Data: {fileID: 21300000, guid: 837f6b29d2a1b2b45a96d3bb350df44e, type: 3}
  - m_RefCount: 1
    m_Data: {fileID: 21300000, guid: cb1494d5939ccd141aaf062d8b8d87c4, type: 3}
  - m_RefCount: 1
    m_Data: {fileID: 21300000, guid: 7eb64fd0ba3f5e34fa2e360120c7ed2d, type: 3}
  - m_RefCount: 1
    m_Data: {fileID: 21300000, guid: be4a4fa825121104ea11e850c5f12d09, type: 3}
  - m_RefCount: 1
    m_Data: {fileID: 21300000, guid: 387cd388392090345b5337162178c698, type: 3}
  - m_RefCount: 1
    m_Data: {fileID: 21300000, guid: e453ab042fb824c4fa460ce5ea84d630, type: 3}
  - m_RefCount: 1
    m_Data: {fileID: 21300000, guid: ad7b788f7adcc634abcb6b6a98091b60, type: 3}
  - m_RefCount: 1
    m_Data: {fileID: 21300000, guid: 329b5927f2f56594586f0c2f2af6f08c, type: 3}
  - m_RefCount: 1
    m_Data: {fileID: 21300000, guid: 6164cfebd7e4a2f4ea300553a07f389d, type: 3}
  - m_RefCount: 2
    m_Data: {fileID: 21300000, guid: af5f477d804a07c4fbb3cb673a4ad20e, type: 3}
  - m_RefCount: 1
    m_Data: {fileID: 21300000, guid: a57ea05686e981140a824abbd56e8f7a, type: 3}
  - m_RefCount: 1
    m_Data: {fileID: 21300000, guid: b6d7191cda5ddc64f8045b122aac58bb, type: 3}
  - m_RefCount: 1
    m_Data: {fileID: 21300000, guid: 5ca41b98eecdd5f48ab69f9f19b9ed46, type: 3}
  - m_RefCount: 1
    m_Data: {fileID: 21300000, guid: 205f24239f2011b459c61a66ffbd6c87, type: 3}
  m_TileMatrixArray:
  - m_RefCount: 19
    m_Data:
      e00: 1
      e01: 0
      e02: 0
      e03: 0
      e10: 0
      e11: 1
      e12: 0
      e13: 0
      e20: 0
      e21: 0
      e22: 1
      e23: 0
      e30: 0
      e31: 0
      e32: 0
      e33: 1
  m_TileColorArray:
  - m_RefCount: 19
    m_Data: {r: 1, g: 1, b: 1, a: 1}
  - m_RefCount: 0
    m_Data: {r: 0, g: 0, b: 0, a: 0}
  m_TileObjectToInstantiateArray:
  - m_RefCount: 1
    m_Data: {fileID: 2637794538125867268, guid: f416fd1b115be3b4cb46f1700d3a2bc8,
      type: 3}
  - m_RefCount: 1
    m_Data: {fileID: 6759623192322376343, guid: a0fecbfaf5198784c8a94d92bb342dfd,
      type: 3}
  m_AnimationFrameRate: 1
  m_Color: {r: 1, g: 1, b: 1, a: 1}
  m_Origin: {x: -3, y: -3, z: 0}
  m_Size: {x: 7, y: 7, z: 1}
  m_TileAnchor: {x: 0.5, y: 0.5, z: 0}
  m_TileOrientation: 0
  m_TileOrientationMatrix:
    e00: 1
    e01: 0
    e02: 0
    e03: 0
    e10: 0
    e11: 1
    e12: 0
    e13: 0
    e20: 0
    e21: 0
    e22: 1
    e23: 0
    e30: 0
    e31: 0
    e32: 0
    e33: 1
--- !u!483693784 &2192064528943409569
TilemapRenderer:
  m_ObjectHideFlags: 0
  m_CorrespondingSourceObject: {fileID: 0}
  m_PrefabInstance: {fileID: 0}
  m_PrefabAsset: {fileID: 0}
  m_GameObject: {fileID: 1584591811173274817}
  m_Enabled: 0
  m_CastShadows: 0
  m_ReceiveShadows: 0
  m_DynamicOccludee: 0
  m_MotionVectors: 1
  m_LightProbeUsage: 0
  m_ReflectionProbeUsage: 0
  m_RayTracingMode: 0
  m_RenderingLayerMask: 1
  m_RendererPriority: 0
  m_Materials:
  - {fileID: 2100000, guid: a97c105638bdf8b4a8650670310a4cd3, type: 2}
  m_StaticBatchInfo:
    firstSubMesh: 0
    subMeshCount: 0
  m_StaticBatchRoot: {fileID: 0}
  m_ProbeAnchor: {fileID: 0}
  m_LightProbeVolumeOverride: {fileID: 0}
  m_ScaleInLightmap: 1
  m_ReceiveGI: 1
  m_PreserveUVs: 0
  m_IgnoreNormalsForChartDetection: 0
  m_ImportantGI: 0
  m_StitchLightmapSeams: 1
  m_SelectedEditorRenderState: 0
  m_MinimumChartSize: 4
  m_AutoUVMaxDistance: 0.5
  m_AutoUVMaxAngle: 89
  m_LightmapParameters: {fileID: 0}
  m_SortingLayerID: 0
  m_SortingLayer: 0
  m_SortingOrder: 0
  m_ChunkSize: {x: 32, y: 32, z: 32}
  m_ChunkCullingBounds: {x: 0, y: 1.4499999, z: 0}
  m_MaxChunkCount: 16
  m_MaxFrameAge: 16
  m_SortOrder: 0
  m_Mode: 0
  m_DetectChunkCullingBounds: 0
  m_MaskInteraction: 0
--- !u!1 &3662421342495857828
GameObject:
  m_ObjectHideFlags: 0
  m_CorrespondingSourceObject: {fileID: 0}
  m_PrefabInstance: {fileID: 0}
  m_PrefabAsset: {fileID: 0}
  serializedVersion: 6
  m_Component:
  - component: {fileID: 3034013175296443561}
  - component: {fileID: 6619490131207123856}
  m_Layer: 31
  m_Name: Walls and detail
  m_TagString: Untagged
  m_Icon: {fileID: 0}
  m_NavMeshLayer: 0
  m_StaticEditorFlags: 0
  m_IsActive: 1
--- !u!4 &3034013175296443561
Transform:
  m_ObjectHideFlags: 0
  m_CorrespondingSourceObject: {fileID: 0}
  m_PrefabInstance: {fileID: 0}
  m_PrefabAsset: {fileID: 0}
  m_GameObject: {fileID: 3662421342495857828}
  m_LocalRotation: {x: 0, y: 0, z: 0, w: 1}
  m_LocalPosition: {x: 0, y: 0, z: 0}
  m_LocalScale: {x: 1, y: 1, z: 1}
  m_Children:
  - {fileID: 6966933462657383396}
  m_Father: {fileID: 0}
  m_RootOrder: 0
  m_LocalEulerAnglesHint: {x: 0, y: 0, z: 0}
--- !u!156049354 &6619490131207123856
Grid:
  m_ObjectHideFlags: 0
  m_CorrespondingSourceObject: {fileID: 0}
  m_PrefabInstance: {fileID: 0}
  m_PrefabAsset: {fileID: 0}
  m_GameObject: {fileID: 3662421342495857828}
  m_Enabled: 1
  m_CellSize: {x: 1, y: 1, z: 0}
  m_CellGap: {x: 0, y: 0, z: 0}
  m_CellLayout: 0
  m_CellSwizzle: 0
--- !u!114 &-4071340493045954705
MonoBehaviour:
  m_ObjectHideFlags: 0
  m_CorrespondingSourceObject: {fileID: 0}
  m_PrefabInstance: {fileID: 0}
  m_PrefabAsset: {fileID: 0}
  m_GameObject: {fileID: 0}
  m_Enabled: 1
  m_EditorHideFlags: 0
  m_Script: {fileID: 12395, guid: 0000000000000000e000000000000000, type: 0}
  m_Name: Palette Settings
  m_EditorClassIdentifier: 
  cellSizing: 0
