%YAML 1.1
%TAG !u! tag:unity3d.com,2011:
--- !u!114 &11400000
MonoBehaviour:
  m_ObjectHideFlags: 0
  m_CorrespondingSourceObject: {fileID: 0}
  m_PrefabInstance: {fileID: 0}
  m_PrefabAsset: {fileID: 0}
  m_GameObject: {fileID: 0}
  m_Enabled: 1
  m_EditorHideFlags: 0
  m_Script: {fileID: 11500000, guid: 13b75c95f34a00d4e8c04f76b73312e6, type: 3}
  m_Name: Ground
  m_EditorClassIdentifier: 
  m_AnimatedSprites:
  - {fileID: 21300000, guid: 30851e57aff9f2747b320707417904a8, type: 3}
  - {fileID: 21300000, guid: f15e88932bceb1e4caa67181404a8d9b, type: 3}
  - {fileID: 21300000, guid: 6164cfebd7e4a2f4ea300553a07f389d, type: 3}
  m_MinSpeed: 1
  m_MaxSpeed: 1
  m_AnimationStartTime: 0
  m_AnimationStartFrame: 0
  m_TileColliderType: 0
